{
    "headlist": [],
    "summary list": [
        " Red blood cells exposed to oxygen deficiency protect against myocardial infarction according to a new study The study also shows that the  ",
        " Researchers have determined how Leishmaniasis vaccine candidates created using mutated diseasecausing parasites prompt molecularlevel changes in host cells that have specific roles in helping  ",
        " Researchers have discovered some new and surprising ways that viral RNA and influenza virus are detected by human lung cells which has potential implications for treating people affected by such  ",
        " Researchers have developed an automated version of the viral plaque assay the goldstandard method for detecting and quantifying  ",
        " Patulin is a harmful mycotoxin produced by fungi typically found in damaged fruits including apples pears and grapes In a recent breakthrough researchers identified a new filamentous fungal  ",
        " As climate change continues to pose severe challenges to ensuring sustainable food supplies around the world scientists are looking for ways to improve the resilience and nutritional quality of  ",
        " Plant species from certain geographic regions are more successful in spreading outside their native ranges than others  but why Ecologists provide answers by exploring how the ecological and  ",
        " New research found that marine heat waves  prolonged periods of unusually warm ocean temperatures  havent had a lasting effect on the fish communities that feed most of the world The finding is  ",
        " An international team of marine scientists has studied the DNA of family groups from four different whale species to estimate their mutation rates Using the newly determined rates the group found  ",
        " This is a significant development that brings hope to the one billion individuals with obesity worldwide Researchers have discovered new insights  "
    ],
    "link list": []
}